<!DOCTYPE html>
<html>
<head>
	<meta charset="UTF-8"/>
	<title> Operadores de Atribuição PHP</title>
	<link rel="stylesheet" href="../CSS/_css/estilo.css"/>
	<style>
			h2{
			font-size: 14pt;
			color: blue;
			font-weight: bold;
			margin-bottom: -15px;
			margin-top: 0px;
			text-shadow: 1px 1px black;
		}
	</style>
</head>
<body>
<div>
	<?php
			
	?>
</div>
</body>
</html>